%YAML 1.1
%TAG !u! tag:unity3d.com,2011:
--- !u!1001 &100100000
Prefab:
  m_ObjectHideFlags: 1
  serializedVersion: 2
  m_Modification:
    m_TransformParent: {fileID: 0}
    m_Modifications: []
    m_RemovedComponents: []
  m_ParentPrefab: {fileID: 0}
  m_RootGameObject: {fileID: 1000014152033524}
  m_IsPrefabParent: 1
--- !u!1 &1000014152033524
GameObject:
  m_ObjectHideFlags: 0
  m_PrefabParentObject: {fileID: 0}
  m_PrefabInternal: {fileID: 100100000}
  serializedVersion: 4
  m_Component:
  - 4: {fileID: 4000011429908620}
  - 114: {fileID: 114000011685802558}
  m_Layer: 0
  m_Name: Constants
  m_TagString: Constants
  m_Icon: {fileID: 0}
  m_NavMeshLayer: 0
  m_StaticEditorFlags: 4294967295
  m_IsActive: 1
--- !u!4 &4000011429908620
Transform:
  m_ObjectHideFlags: 1
  m_PrefabParentObject: {fileID: 0}
  m_PrefabInternal: {fileID: 100100000}
  m_GameObject: {fileID: 1000014152033524}
  m_LocalRotation: {x: -0, y: -0, z: -0, w: 1}
  m_LocalPosition: {x: 3.6814194, y: -12.456858, z: -28.530807}
  m_LocalScale: {x: 1, y: 1, z: 1}
  m_LocalEulerAnglesHint: {x: 0, y: 0, z: 0}
  m_Children: []
  m_Father: {fileID: 0}
  m_RootOrder: 0
--- !u!114 &114000011685802558
MonoBehaviour:
  m_ObjectHideFlags: 1
  m_PrefabParentObject: {fileID: 0}
  m_PrefabInternal: {fileID: 100100000}
  m_GameObject: {fileID: 1000014152033524}
  m_Enabled: 1
  m_EditorHideFlags: 0
  m_Script: {fileID: 11500000, guid: 1ea190c5ec3872e4da0a72eb9e457a35, type: 3}
  m_Name: 
  m_EditorClassIdentifier: 
  versionNumber: 0.50
  playersToStart: 2
  maxPlayers: 2
  towerStartHealth: 10000
  magicStartAmount: 100
  maxMagic: 100
  pieceMagicCost: 20
  arcaneBombAmount: 1
  rechargeCooldown: 10
  magicRechargeRate: 5
  magicRechargeStep: 1
  maxUnitAmount: 50
  giveMagicOnKill: 0
  offlineMode: 0
  testMode: 0
  cameraXLock: 1
  cameraXRotation: 45
  golemHealth: 175
  golemDamage: 30
  golemAttackInterval: 1.5
  golemMovementSpeed: 3
  golemAttackDistance: 6
  golemMagicReward: 5
  apprenticeHealth: 70
  apprenticeDamage: 75
  apprenticeAttackInterval: 2
  apprenticeMovementSpeed: 5
  apprenticeAttackDistance: 15
  apprenticeMagicReward: 5
  skeletonHealth: 80
  skeletonDamage: 20
  skeletonAttackInterval: 1
  skeletonMovementSpeed: 4
  skeletonAttackDistance: 25
  skeletonMagicReward: 5
  targetCheckInterval: 0.25
  targetAcquireDistance: 40
  unitSpawnRate: 10
  unitSpawnRadius: 1
  spellOfHodosCost: 50
  spellOfHodosCD: 30
  spellOfHodosChange: 2
  fatherTimesClockCost: 50
  fatherTimesClockCD: 30
  fatherTimesClockChange: 0.5
  occultGlassesCost: 50
  occultGlassesCD: 30
  occultGlassesChange: 5
  forLootAndGloryCost: 50
  forLootAndGloryCD: 30
  forLootAndGloryChange: 10
  divineInterventionCost: 50
  divineInterventionCD: 30
  divineInterventionHeal: 50
  divineInterventionStunDuration: 3
  buffDuration: 15
  spellRadius: 25
