# 3ds Max Wavefront OBJ Exporter v0.97b - (c)2007 guruware
# File Created: 20.02.2017 12:26:15

mtllib Horns.mtl

#
# object Horns
#

v  3.3068 2.3970 1.7349
v  3.1905 2.2495 1.4308
v  4.1675 2.5954 1.6528
v  4.0655 2.7026 1.8806
v  3.4270 2.3991 1.3278
v  4.0899 2.6705 1.2432
v  4.2315 7.6612 0.9410
v  4.6176 7.6041 1.0860
v  3.2151 2.6427 1.2252
v  3.7437 3.0395 1.2894
v  4.0047 8.0180 1.0864
v  2.9775 2.6397 1.3140
v  3.6967 3.0553 1.5184
v  3.1746 2.6566 1.5806
v  3.7949 2.9493 1.7340
v  4.5033 8.1624 1.5942
v  4.1362 8.2929 1.4687
v  4.7404 7.8177 1.4492
v  4.5342 8.9369 -0.2961
v  5.4116 8.4102 0.1825
v  5.7245 9.0205 0.6762
v  4.6329 10.4071 0.0202
v  5.8232 10.4908 0.9924
v  5.0782 11.0566 0.5792
v  3.3233 3.4693 0.5846
v  3.3390 3.3784 0.4289
v  4.4600 3.5513 0.4898
v  4.3934 3.6289 0.6056
v  3.3728 3.4662 0.2990
v  4.1073 3.6101 0.2769
v  3.7820 7.0068 -0.0870
v  4.0505 6.9429 -0.0189
v  3.2369 3.6457 0.2460
v  3.9752 3.8823 0.4469
v  3.6624 7.2624 0.0295
v  3.0832 3.6578 0.3249
v  4.0592 3.8943 0.5825
v  3.2382 3.6551 0.4903
v  4.2030 3.8145 0.6487
v  4.0479 7.3260 0.3348
v  3.7983 7.4384 0.2784
v  4.1752 7.0778 0.2178
v  3.8966 7.9027 -1.6178
v  4.4938 7.4866 -1.3620
v  4.7819 7.8787 -1.0516
v  4.0800 8.8941 -1.4110
v  4.9652 8.8701 -0.8449
v  4.4651 9.3041 -1.0667
v  -2.3188 2.6154 -2.2958
v  -2.5235 2.5244 -2.1989
v  -2.8262 2.6974 -2.9303
v  -2.6729 2.7749 -2.8601
v  -2.6000 2.6122 -2.3660
v  -3.0902 2.7562 -2.8487
v  -2.8284 6.1528 -3.1953
v  -2.6069 6.0889 -3.3617
v  -2.6627 2.7918 -2.2343
v  -3.0469 3.0283 -2.6378
v  -2.8128 6.4085 -3.0291
v  -2.5953 2.8039 -2.0752
v  -2.8893 3.0403 -2.6134
v  -2.4190 2.8012 -2.2178
v  -2.7455 2.9606 -2.6796
v  -2.3331 6.4720 -3.1377
v  -2.5336 6.5845 -2.9787
v  -2.3443 6.2239 -3.3102
v  -3.3692 7.0755 -3.9749
v  -2.7458 6.6242 -4.0273
v  -2.3206 7.0140 -4.0111
v  -3.0723 8.0537 -4.0939
v  -2.0236 7.9921 -4.1301
v  -2.5477 8.4532 -4.1081
v  -1.2020 2.5895 -3.3884
v  -1.4059 2.4425 -3.2925
v  -1.5744 2.7007 -3.9652
v  -1.4177 2.8233 -3.9082
v  -1.4824 2.5737 -3.4614
v  -1.8531 2.7763 -3.9089
v  -1.4187 7.2329 -3.9433
v  -1.1418 7.1491 -3.9708
v  -1.5502 2.8390 -3.3322
v  -1.8176 3.1842 -3.7004
v  -1.4963 7.6120 -3.7957
v  -1.4847 2.8577 -3.1726
v  -1.6605 3.2086 -3.6745
v  -1.3069 2.8634 -3.3133
v  -1.5144 3.0959 -3.7384
v  -1.0310 7.7254 -3.6416
v  -1.2871 7.8830 -3.6102
v  -0.9464 7.3580 -3.7926
v  -1.3632 8.5683 -4.8488
v  -0.7062 7.9701 -4.8088
v  -0.3373 8.5730 -4.6201
v  -1.1405 10.0674 -4.7280
v  -0.1146 10.0721 -4.4993
v  -0.6692 10.7017 -4.5409
# 96 vertices

vn 0.2420 -0.8974 0.3690
vn 0.3187 -0.9452 0.0703
vn 0.7794 -0.6080 0.1513
vn 0.7042 -0.4812 0.5221
vn 0.3760 -0.8640 -0.3348
vn 0.8127 -0.5261 -0.2505
vn 0.2180 -0.5119 -0.8309
vn 0.6896 -0.5188 -0.5053
vn 0.1096 -0.1133 -0.9875
vn 0.2518 -0.1814 -0.9506
vn -0.1241 -0.0519 -0.9909
vn -0.1525 -0.0191 -0.9881
vn -0.6485 -0.0296 -0.7606
vn -0.6500 -0.1066 -0.7524
vn -0.2977 0.7590 -0.5790
vn -0.4575 0.8735 -0.1664
vn -0.8467 0.4867 0.2149
vn -0.8610 0.4638 -0.2086
vn -0.5308 0.7551 0.3847
vn -0.7125 0.4445 0.5429
vn -0.2678 0.1962 0.9433
vn -0.7051 0.2835 0.6500
vn -0.3173 0.3183 0.8933
vn -0.3143 0.3616 0.8777
vn -0.3454 0.1700 0.9229
vn -0.3719 0.1376 0.9180
vn 0.4742 -0.0273 0.8800
vn 0.5376 -0.0314 0.8426
vn -0.0232 -0.6932 -0.7204
vn 0.5221 -0.7923 -0.3157
vn 0.8940 -0.4478 -0.0163
vn 0.8136 -0.5556 0.1712
vn -0.9620 0.0505 -0.2685
vn -0.9852 0.0966 -0.1414
vn -0.2265 0.3621 0.9042
vn -0.5932 0.4077 0.6942
vn -0.9602 0.1855 0.2086
vn -0.8872 0.3613 0.2869
vn 0.7389 -0.1887 0.6469
vn 0.6876 -0.1574 0.7089
vn 0.1044 -0.8499 0.5165
vn 0.1504 -0.9880 0.0364
vn 0.8021 -0.5921 -0.0785
vn 0.6760 -0.3911 0.6246
vn 0.1571 -0.8394 -0.5203
vn 0.3481 -0.5796 -0.7368
vn -0.0048 -0.6678 -0.7443
vn 0.6033 -0.5233 -0.6018
vn 0.2019 0.0552 -0.9778
vn 0.2823 -0.0686 -0.9569
vn -0.6462 0.0897 -0.7579
vn -0.4419 0.3112 -0.8413
vn -0.8751 -0.1256 -0.4674
vn -0.8560 -0.1794 -0.4848
vn -0.1341 0.9250 -0.3556
vn -0.2114 0.9730 -0.0920
vn -0.3277 0.3880 0.8614
vn -0.3331 0.9348 0.1236
vn -0.2980 0.8955 0.3306
vn -0.3214 0.1901 0.9277
vn -0.0798 0.2964 0.9517
vn -0.4266 0.4933 0.7580
vn -0.0867 0.3227 0.9425
vn -0.0806 0.4214 0.9033
vn 0.1042 -0.0587 0.9928
vn 0.1184 -0.1078 0.9871
vn 0.7474 0.0808 0.6594
vn 0.7984 0.0667 0.5984
vn -0.3452 -0.7985 -0.4932
vn 0.2261 -0.9133 -0.3387
vn 0.8972 -0.3624 -0.2524
vn 0.8029 -0.5961 0.0076
vn -0.9908 0.1295 -0.0384
vn -0.9840 0.1759 0.0293
vn 0.1190 0.5572 0.8218
vn -0.4458 0.6151 0.6503
vn -0.8719 0.4484 0.1967
vn -0.8098 0.4909 0.3213
vn 0.9264 -0.2330 0.2957
vn 0.9139 -0.1901 0.3587
vn -0.8509 -0.0140 0.5251
vn -0.8709 -0.0220 0.4909
vn -0.8704 -0.0218 0.4918
vn -0.8496 -0.0135 0.5272
vn 0.2913 -0.8911 -0.3481
vn 0.1066 -0.9569 -0.2703
vn 0.0169 -0.6710 -0.7413
vn 0.5413 -0.4200 -0.7284
vn -0.9079 -0.2662 0.3238
vn -0.3559 -0.5332 -0.7675
vn -0.6111 -0.4374 -0.6598
vn -0.1237 -0.4630 -0.8777
vn -0.7384 -0.4915 0.4617
vn -0.7433 -0.5446 0.3885
vn -0.9400 -0.1296 0.3155
vn -0.8743 -0.2027 0.4411
vn -0.9910 0.0608 0.1194
vn -0.9925 -0.0179 0.1210
vn -0.8875 -0.1388 0.4394
vn -0.0480 0.9045 0.4237
vn 0.2223 0.6749 0.7036
vn -0.1531 0.7820 0.6042
vn 0.2791 0.9319 0.2316
vn 0.5814 0.6899 0.4314
vn 0.6499 0.2001 0.7333
vn 0.2767 0.3851 0.8804
vn 0.7616 0.5613 -0.3240
vn 0.7680 0.5512 -0.3261
vn 0.9332 0.3591 -0.0170
vn 0.9562 0.2744 0.1022
vn 0.9875 -0.1139 0.1086
vn 0.9921 -0.1176 0.0435
vn -0.5475 -0.7036 -0.4529
vn -0.0404 -0.7706 -0.6360
vn 0.4216 -0.4713 -0.7747
vn 0.5429 -0.5664 -0.6201
vn -0.7188 0.2196 0.6596
vn -0.6065 0.2749 0.7461
vn 0.4168 0.4359 0.7977
vn 0.0495 0.4940 0.8680
vn -0.4140 0.4662 0.7818
vn -0.3383 0.4731 0.8135
vn 0.8951 -0.3107 -0.3199
vn 0.9456 -0.2613 -0.1937
vn -0.1653 0.1245 0.9784
vn -0.2517 0.1242 0.9598
vn -0.2498 0.1242 0.9603
vn -0.1611 0.1245 0.9791
vn 0.4378 -0.7872 -0.4344
vn 0.1701 -0.9050 -0.3899
vn 0.0601 -0.6176 -0.7842
vn 0.5259 -0.2936 -0.7983
vn -0.8312 -0.5559 0.0117
vn -0.2893 -0.4285 -0.8560
vn -0.2316 -0.3391 -0.9118
vn 0.3540 -0.3491 -0.8676
vn -0.8544 -0.3042 0.4212
vn -0.8816 -0.3687 0.2946
vn -0.9876 -0.0274 0.1548
vn -0.8857 -0.1479 0.4401
vn -0.8800 0.0437 -0.4729
vn -0.8983 -0.0130 -0.4391
vn -0.8902 0.1368 0.4346
vn -0.1506 0.7847 0.6013
vn 0.2101 0.4781 0.8528
vn -0.2207 0.6264 0.7476
vn 0.3938 0.8258 0.4038
vn 0.6565 0.5720 0.4917
vn 0.1761 0.0917 0.9801
vn -0.2939 0.2803 0.9138
vn 0.8923 0.4077 -0.1937
vn 0.8973 0.3966 -0.1939
vn 0.9535 0.2974 0.0497
vn 0.9324 0.1179 0.3418
vn 0.7746 -0.0798 0.6273
vn 0.7729 -0.0976 0.6269
vn -0.4091 -0.5004 -0.7631
vn 0.4034 -0.7188 -0.5662
vn 0.8279 -0.4508 -0.3337
vn 0.8621 -0.4975 -0.0959
vn -0.9946 0.1021 0.0161
vn -0.9812 0.1346 0.1385
vn 0.2215 0.2573 0.9406
vn -0.1969 0.3355 0.9212
vn -0.8096 0.3333 0.4832
vn -0.7040 0.3390 0.6241
vn 0.8948 -0.1663 0.4143
vn 0.8724 -0.1459 0.4665
vn -0.1858 0.0339 0.9820
vn -0.6950 0.0457 0.7176
vn -0.6889 0.0456 0.7234
vn -0.1676 0.0334 0.9853
# 172 vertex normals

vt 0.7640 0.7055 0.0000
vt 0.7424 0.7225 0.0000
vt 0.7215 0.6535 0.0000
vt 0.7393 0.6462 0.0000
vt 0.8272 0.7010 0.0000
vt 0.8434 0.6512 0.0000
vt 0.8693 0.6640 0.0000
vt 0.8445 0.7203 0.0000
vt 0.8545 0.2879 0.0000
vt 0.8807 0.2980 0.0000
vt 0.8125 0.6924 0.0000
vt 0.8105 0.6335 0.0000
vt 0.8316 0.2669 0.0000
vt 0.7970 0.6956 0.0000
vt 0.7888 0.6331 0.0000
vt 0.7805 0.6947 0.0000
vt 0.7668 0.6372 0.0000
vt 0.7706 0.2534 0.0000
vt 0.8000 0.2502 0.0000
vt 0.7461 0.2710 0.0000
vt 0.9070 0.1649 0.0000
vt 0.9568 0.2291 0.0000
vt 0.7189 0.2863 0.0000
vt 0.6511 0.2076 0.0000
vt 0.6867 0.1581 0.0000
vt 0.8521 0.0714 0.0000
vt 0.7297 0.0583 0.0000
vt 0.7964 0.0291 0.0000
vt 0.6127 0.2590 0.0000
vt 0.6281 0.2496 0.0000
vt 0.6598 0.3549 0.0000
vt 0.6457 0.3582 0.0000
vt 0.5570 0.2593 0.0000
vt 0.5492 0.3450 0.0000
vt 0.5085 0.3480 0.0000
vt 0.5353 0.2484 0.0000
vt 0.5521 0.6933 0.0000
vt 0.5286 0.6813 0.0000
vt 0.5753 0.2640 0.0000
vt 0.5820 0.3604 0.0000
vt 0.5725 0.7107 0.0000
vt 0.5904 0.2631 0.0000
vt 0.6018 0.3641 0.0000
vt 0.6014 0.2603 0.0000
vt 0.6210 0.3638 0.0000
vt 0.6282 0.7171 0.0000
vt 0.6033 0.7216 0.0000
vt 0.6494 0.7039 0.0000
vt 0.4708 0.8557 0.0000
vt 0.4291 0.7915 0.0000
vt 0.6775 0.6969 0.0000
vt 0.7752 0.8136 0.0000
vt 0.7279 0.8471 0.0000
vt 0.5402 0.9315 0.0000
vt 0.6638 0.9283 0.0000
vt 0.6011 0.9595 0.0000
vt 0.3450 0.6770 0.0000
vt 0.3221 0.6868 0.0000
vt 0.3054 0.6131 0.0000
vt 0.3244 0.6122 0.0000
vt 0.4241 0.6712 0.0000
vt 0.4270 0.6099 0.0000
vt 0.4500 0.6227 0.0000
vt 0.4392 0.6796 0.0000
vt 0.4340 0.2727 0.0000
vt 0.4635 0.2806 0.0000
vt 0.3973 0.6623 0.0000
vt 0.3950 0.5951 0.0000
vt 0.4102 0.2549 0.0000
vt 0.3789 0.6613 0.0000
vt 0.3762 0.5984 0.0000
vt 0.3615 0.6646 0.0000
vt 0.3539 0.6041 0.0000
vt 0.3481 0.2466 0.0000
vt 0.3778 0.2417 0.0000
vt 0.3240 0.2642 0.0000
vt 0.4815 0.1464 0.0000
vt 0.5189 0.2141 0.0000
vt 0.2968 0.2792 0.0000
vt 0.2422 0.2110 0.0000
vt 0.2801 0.1661 0.0000
vt 0.4259 0.0591 0.0000
vt 0.3064 0.0674 0.0000
vt 0.3652 0.0264 0.0000
vt 0.2053 0.2100 0.0000
vt 0.2153 0.1986 0.0000
vt 0.2413 0.2523 0.0000
vt 0.2245 0.2602 0.0000
vt 0.1449 0.2103 0.0000
vt 0.1327 0.2610 0.0000
vt 0.1131 0.2490 0.0000
vt 0.1376 0.1994 0.0000
vt 0.1299 0.6337 0.0000
vt 0.1045 0.6267 0.0000
vt 0.1626 0.2223 0.0000
vt 0.1610 0.2871 0.0000
vt 0.1510 0.6606 0.0000
vt 0.1751 0.2320 0.0000
vt 0.1781 0.2862 0.0000
vt 0.1924 0.2285 0.0000
vt 0.1981 0.2780 0.0000
vt 0.2042 0.6702 0.0000
vt 0.1783 0.6803 0.0000
vt 0.2246 0.6431 0.0000
vt 0.0948 0.7668 0.0000
vt 0.0400 0.7120 0.0000
vt 0.2453 0.6232 0.0000
vt 0.3135 0.7056 0.0000
vt 0.2912 0.7630 0.0000
vt 0.1530 0.8828 0.0000
vt 0.2610 0.8871 0.0000
vt 0.2038 0.9326 0.0000
# 112 texture coords

g Horns
usemtl wire_006135006
s 8
f 1/1/1 2/2/2 3/3/3 4/4/4 
f 5/5/5 6/6/6 3/7/3 2/8/2 
f 7/9/7 8/10/8 3/7/3 6/6/6 
s 16
f 5/5/9 9/11/10 10/12/11 6/6/12 
f 7/9/13 6/6/12 10/12/11 11/13/14 
s 32
f 9/11/15 12/14/16 13/15/17 10/12/18 
f 14/16/19 15/17/20 13/15/17 12/14/16 
f 16/18/21 17/19/22 13/15/17 15/17/20 
s 64
f 14/16/23 1/1/24 4/4/25 15/17/26 
f 16/18/27 15/17/26 4/4/25 18/20/28 
s 8
f 7/9/7 19/21/29 20/22/30 8/10/8 
f 18/20/31 8/23/8 20/24/30 21/25/32 
s 16
f 22/26/33 19/21/34 7/9/13 11/13/14 
s 32
f 16/18/21 23/27/35 24/28/36 17/19/22 
f 11/13/37 17/19/22 24/28/36 22/26/38 
s 64
f 18/20/28 21/25/39 23/27/40 16/18/27 
s 8
f 4/4/4 3/3/3 8/23/8 18/20/31 
s 32
f 11/13/37 10/12/18 13/15/17 17/19/22 
s 8
f 25/29/41 26/30/42 27/31/43 28/32/44 
f 29/33/45 30/34/46 27/35/43 26/36/42 
f 31/37/47 32/38/48 27/35/43 30/34/46 
s 16
f 29/33/49 33/39/50 34/40/51 30/34/52 
f 31/37/53 30/34/52 34/40/51 35/41/54 
s 32
f 33/39/55 36/42/56 37/43/57 34/40/58 
f 38/44/59 39/45/60 37/43/57 36/42/56 
f 40/46/61 41/47/62 37/43/57 39/45/60 
s 64
f 38/44/63 25/29/64 28/32/65 39/45/66 
f 40/46/67 39/45/66 28/32/65 42/48/68 
s 8
f 31/37/47 43/49/69 44/50/70 32/38/48 
f 42/48/71 32/51/48 44/52/70 45/53/72 
s 16
f 46/54/73 43/49/74 31/37/53 35/41/54 
s 32
f 40/46/61 47/55/75 48/56/76 41/47/62 
f 35/41/77 41/47/62 48/56/76 46/54/78 
s 64
f 42/48/68 45/53/79 47/55/80 40/46/67 
s 8
f 28/32/44 27/31/43 32/51/48 42/48/71 
s 1
f 37/43/81 41/47/82 35/41/83 34/40/84 
s 8
f 49/57/85 50/58/86 51/59/87 52/60/88 
f 53/61/89 54/62/90 51/63/87 50/64/86 
f 55/65/91 56/66/92 51/63/87 54/62/90 
s 16
f 53/61/93 57/67/94 58/68/95 54/62/96 
f 55/65/97 54/62/96 58/68/95 59/69/98 
s 32
f 57/67/99 60/70/100 61/71/101 58/68/102 
f 62/72/103 63/73/104 61/71/101 60/70/100 
f 64/74/105 65/75/106 61/71/101 63/73/104 
s 64
f 62/72/107 49/57/108 52/60/109 63/73/110 
f 64/74/111 63/73/110 52/60/109 66/76/112 
s 8
f 55/65/91 67/77/113 68/78/114 56/66/92 
f 66/76/115 56/79/92 68/80/114 69/81/116 
s 16
f 70/82/117 67/77/118 55/65/97 59/69/98 
s 32
f 64/74/105 71/83/119 72/84/120 65/75/106 
f 59/69/121 65/75/106 72/84/120 70/82/122 
s 64
f 66/76/112 69/81/123 71/83/124 64/74/111 
s 8
f 52/60/88 51/59/87 56/79/92 66/76/115 
s 1
f 61/71/125 65/75/126 59/69/127 58/68/128 
s 8
f 73/85/129 74/86/130 75/87/131 76/88/132 
f 77/89/133 78/90/134 75/91/131 74/92/130 
f 79/93/135 80/94/136 75/91/131 78/90/134 
s 16
f 77/89/137 81/95/138 82/96/139 78/90/140 
f 79/93/141 78/90/140 82/96/139 83/97/142 
s 32
f 81/95/143 84/98/144 85/99/145 82/96/146 
f 86/100/147 87/101/148 85/99/145 84/98/144 
f 88/102/149 89/103/150 85/99/145 87/101/148 
s 64
f 86/100/151 73/85/152 76/88/153 87/101/154 
f 88/102/155 87/101/154 76/88/153 90/104/156 
s 8
f 79/93/135 91/105/157 92/106/158 80/94/136 
f 90/104/159 80/107/136 92/108/158 93/109/160 
s 16
f 94/110/161 91/105/162 79/93/141 83/97/142 
s 32
f 88/102/149 95/111/163 96/112/164 89/103/150 
f 83/97/165 89/103/150 96/112/164 94/110/166 
s 64
f 90/104/156 93/109/167 95/111/168 88/102/155 
s 8
f 76/88/132 75/87/131 80/107/136 90/104/159 
s 1
f 85/99/169 89/103/170 83/97/171 82/96/172 
# 72 polygons

