# 3ds Max Wavefront OBJ Exporter v0.97b - (c)2007 guruware
# File Created: 20.02.2017 12:36:14

mtllib Roof.mtl

#
# object Roof
#

v  3.9183 3.3956 -0.2425
v  3.0974 3.4987 -2.1144
v  1.5130 4.6414 -1.2209
v  1.8450 4.5796 -0.2658
v  1.6826 3.4388 -3.4341
v  0.8118 4.6220 -1.8936
v  -0.1195 3.3512 -3.8513
v  -0.1074 4.4898 -2.0708
v  -1.9759 3.3031 -3.4000
v  -1.0531 4.4548 -1.8360
v  -3.2511 3.2682 -1.8461
v  -1.6908 4.3512 -1.0938
v  -3.7774 3.3394 0.0365
v  -1.9194 4.3989 -0.1408
v  -3.2462 3.4911 1.8842
v  -1.6279 4.4587 0.7950
v  -1.8661 3.4370 3.3933
v  -0.8855 4.4248 1.4746
v  0.1600 3.3529 3.6214
v  0.0869 4.4324 1.7306
v  2.0498 3.3946 3.0016
v  1.0271 4.4289 1.4059
v  3.3604 3.4496 1.5930
v  1.6755 4.4968 0.6940
v  0.9278 5.9707 -1.2303
v  1.0616 6.0586 -0.7263
v  0.5387 5.9399 -1.5940
v  0.0323 5.9096 -1.7053
v  -0.4749 5.9231 -1.5698
v  -0.8388 5.9850 -1.1830
v  -0.9550 6.1329 -0.6700
v  -0.8117 6.2998 -0.1404
v  -0.3734 6.3872 0.2456
v  0.2143 6.3979 0.3622
v  0.7029 6.2967 0.1822
v  1.0125 6.1776 -0.2235
v  0.9499 7.3721 -2.1082
v  1.0050 7.4451 -1.8330
v  0.7341 7.3597 -2.3179
v  0.4520 7.4096 -2.3730
v  0.2045 7.5055 -2.2712
v  0.0501 7.6062 -2.0665
v  0.0341 7.6925 -1.8086
v  0.1225 7.7522 -1.5690
v  0.3106 7.7670 -1.3906
v  0.5501 7.7239 -1.3316
v  0.7742 7.6419 -1.4007
v  0.9497 7.5458 -1.5751
v  0.8048 9.3872 -2.5094
# 49 vertices

vn 0.5558 0.8297 -0.0512
vn 0.4738 0.8157 -0.3317
vn 0.6842 0.5849 -0.4355
vn 0.7781 0.6251 -0.0621
vn 0.2109 0.8215 -0.5298
vn 0.3646 0.5708 -0.7357
vn -0.0325 0.8368 -0.5465
vn -0.0282 0.5866 -0.8094
vn -0.3045 0.8664 -0.3956
vn -0.3882 0.6591 -0.6440
vn -0.4310 0.8752 -0.2193
vn -0.6276 0.6967 -0.3474
vn -0.4320 0.9018 -0.0021
vn -0.6633 0.7473 -0.0392
vn -0.2994 0.9200 0.2528
vn -0.5256 0.7857 0.3262
vn -0.0823 0.9053 0.4166
vn -0.2314 0.7789 0.5829
vn 0.1408 0.8695 0.4735
vn 0.1371 0.7417 0.6565
vn 0.3322 0.8524 0.4037
vn 0.4586 0.6952 0.5535
vn 0.4899 0.8446 0.2161
vn 0.6896 0.6662 0.2839
vn 0.8587 -0.0433 -0.5105
vn 0.9889 0.1317 -0.0678
vn 0.4445 -0.1257 -0.8869
vn -0.0842 -0.0407 -0.9956
vn -0.5294 0.1612 -0.8329
vn -0.7995 0.3878 -0.4586
vn -0.8314 0.5502 -0.0776
vn -0.6630 0.6758 0.3221
vn -0.2997 0.7109 0.6362
vn 0.1628 0.6552 0.7377
vn 0.5942 0.5151 0.6178
vn 0.8918 0.3230 0.3167
vn 0.8850 -0.2156 -0.4127
vn 0.9999 -0.0006 -0.0086
vn 0.4656 -0.3447 -0.8151
vn -0.0714 -0.2667 -0.9611
vn -0.5457 -0.0356 -0.8372
vn -0.8315 0.2572 -0.4924
vn -0.8631 0.4993 -0.0760
vn -0.6910 0.6635 0.2867
vn -0.3151 0.7395 0.5949
vn 0.1662 0.6808 0.7133
vn 0.5953 0.5124 0.6190
vn 0.8930 0.2736 0.3573
vn 0.1987 0.9616 -0.1891
# 49 vertex normals

vt 0.0238 0.5832 0.0000
vt 0.0655 0.4785 0.0000
vt 0.2114 0.5400 0.0000
vt 0.1864 0.6105 0.0000
vt 0.1391 0.3825 0.0000
vt 0.2477 0.4905 0.0000
vt 0.2962 0.9908 0.0000
vt 0.2377 0.8942 0.0000
vt 0.3894 0.8453 0.0000
vt 0.4203 0.8969 0.0000
vt 0.2281 0.7907 0.0000
vt 0.3767 0.7759 0.0000
vt 0.2298 0.6888 0.0000
vt 0.3775 0.6988 0.0000
vt 0.2357 0.5860 0.0000
vt 0.3878 0.6197 0.0000
vt 0.2722 0.4844 0.0000
vt 0.4092 0.5509 0.0000
vt 0.3547 0.3886 0.0000
vt 0.4494 0.4995 0.0000
vt 0.0980 0.9912 0.0000
vt 0.0298 0.8888 0.0000
vt 0.1733 0.8393 0.0000
vt 0.2086 0.8923 0.0000
vt 0.0138 0.7783 0.0000
vt 0.1632 0.7695 0.0000
vt 0.0148 0.6789 0.0000
vt 0.1700 0.6911 0.0000
vt 0.6955 0.9833 0.0000
vt 0.6262 0.9733 0.0000
vt 0.6120 0.8650 0.0000
vt 0.6536 0.8537 0.0000
vt 0.5619 0.9706 0.0000
vt 0.5685 0.8658 0.0000
vt 0.4947 0.9706 0.0000
vt 0.5298 0.8719 0.0000
vt 0.9035 0.5547 0.0000
vt 0.9430 0.6124 0.0000
vt 0.8161 0.6405 0.0000
vt 0.8074 0.6037 0.0000
vt 0.9684 0.6743 0.0000
vt 0.8247 0.6781 0.0000
vt 0.9752 0.7438 0.0000
vt 0.8153 0.7141 0.0000
vt 0.9651 0.8138 0.0000
vt 0.7995 0.7478 0.0000
vt 0.9409 0.8844 0.0000
vt 0.7783 0.7780 0.0000
vt 0.8968 0.9434 0.0000
vt 0.7533 0.8030 0.0000
vt 0.8365 0.9789 0.0000
vt 0.7253 0.8236 0.0000
vt 0.7677 0.9894 0.0000
vt 0.6922 0.8402 0.0000
vt 0.5576 0.7442 0.0000
vt 0.5755 0.7389 0.0000
vt 0.5400 0.7452 0.0000
vt 0.5218 0.7450 0.0000
vt 0.6748 0.5972 0.0000
vt 0.6808 0.5786 0.0000
vt 0.6677 0.6167 0.0000
vt 0.6593 0.6361 0.0000
vt 0.6498 0.6560 0.0000
vt 0.6386 0.6763 0.0000
vt 0.6256 0.6960 0.0000
vt 0.6106 0.7138 0.0000
vt 0.5936 0.7286 0.0000
vt 0.4759 0.5386 0.0000
# 68 texture coords

g Roof
usemtl 01___Default
s off
f 1/1/1 2/2/2 3/3/3 4/4/4 
f 2/2/2 5/5/5 6/6/6 3/3/3 
f 5/7/5 7/8/7 8/9/8 6/10/6 
f 7/8/7 9/11/9 10/12/10 8/9/8 
f 9/11/9 11/13/11 12/14/12 10/12/10 
f 11/13/11 13/15/13 14/16/14 12/14/12 
f 13/15/13 15/17/15 16/18/16 14/16/14 
f 15/17/15 17/19/17 18/20/18 16/18/16 
f 17/21/17 19/22/19 20/23/20 18/24/18 
f 19/22/19 21/25/21 22/26/22 20/23/20 
f 21/25/21 23/27/23 24/28/24 22/26/22 
f 23/27/23 1/1/1 4/4/4 24/28/24 
f 4/29/4 3/30/3 25/31/25 26/32/26 
f 3/30/3 6/33/6 27/34/27 25/31/25 
f 6/33/6 8/35/8 28/36/28 27/34/27 
f 8/37/8 10/38/10 29/39/29 28/40/28 
f 10/38/10 12/41/12 30/42/30 29/39/29 
f 12/41/12 14/43/14 31/44/31 30/42/30 
f 14/43/14 16/45/16 32/46/32 31/44/31 
f 16/45/16 18/47/18 33/48/33 32/46/32 
f 18/47/18 20/49/20 34/50/34 33/48/33 
f 20/49/20 22/51/22 35/52/35 34/50/34 
f 22/51/22 24/53/24 36/54/36 35/52/35 
f 24/53/24 4/29/4 26/32/26 36/54/36 
f 26/32/26 25/31/25 37/55/37 38/56/38 
f 25/31/25 27/34/27 39/57/39 37/55/37 
f 27/34/27 28/36/28 40/58/40 39/57/39 
f 28/40/28 29/39/29 41/59/41 40/60/40 
f 29/39/29 30/42/30 42/61/42 41/59/41 
f 30/42/30 31/44/31 43/62/43 42/61/42 
f 31/44/31 32/46/32 44/63/44 43/62/43 
f 32/46/32 33/48/33 45/64/45 44/63/44 
f 33/48/33 34/50/34 46/65/46 45/64/45 
f 34/50/34 35/52/35 47/66/47 46/65/46 
f 35/52/35 36/54/36 48/67/48 47/66/47 
f 36/54/36 26/32/26 38/56/38 48/67/48 
f 38/56/38 37/55/37 49/68/49 
f 37/55/37 39/57/39 49/68/49 
f 39/57/39 40/58/40 49/68/49 
f 40/60/40 41/59/41 49/68/49 
f 41/59/41 42/61/42 49/68/49 
f 42/61/42 43/62/43 49/68/49 
f 43/62/43 44/63/44 49/68/49 
f 44/63/44 45/64/45 49/68/49 
f 45/64/45 46/65/46 49/68/49 
f 46/65/46 47/66/47 49/68/49 
f 47/66/47 48/67/48 49/68/49 
f 48/67/48 38/56/38 49/68/49 
# 36 polygons - 12 triangles

